{"Players":[
{
    "bear": "1",
        "bearTrap": "0",
        "bleedings": "0",
        "c4": "0",
        "campfire": "0",
        "cold": "0",
        "drowning": "0",
        "fall": "0",
        "heat": "0",
        "hunger": "0",
        "idPayer": "76561197991047431",
        "kills": "1",
        "playerName": "Funksorus",
        "players": "0",
        "poison": "0",
        "radiations": "0",
        "sleepers": "1",
        "suicides": "16",
        "thirst": "0",
        "wolf": "2"
},
{
    "bear": "0",
    "bearTrap": "0",
    "bleedings": "0",
    "c4": "0",
    "campfire": "0",
    "cold": "0",
    "drowning": "0",
    "fall": "1",
    "heat": "0",
    "hunger": "0",
    "idPayer": "76561198095682416",
    "kills": "1",
    "playerName": "Seudo",
    "players": "0",
    "poison": "0",
    "radiations": "0",
    "sleepers": "0",
    "suicides": "1",
    "thirst": "0",
    "wolf": "0"
},
{
    "bear": "0",
    "bearTrap": "0",
    "bleedings": "0",
    "c4": "0",
    "campfire": "0",
    "cold": "2",
    "drowning": "0",
    "fall": "0",
    "heat": "0",
    "hunger": "0",
    "idPayer": "76561198021822683",
    "kills": "0",
    "playerName": "Flux",
    "players": "2",
    "poison": "1",
    "radiations": "2",
    "sleepers": "1",
    "suicides": "0",
    "thirst": "0",
    "wolf": "0"
},
{
    "bear": "0",
    "bearTrap": "0",
    "bleedings": "0",
    "c4": "0",
    "campfire": "0",
    "cold": "0",
    "drowning": "0",
    "fall": "0",
    "heat": "0",
    "hunger": "0",
    "idPayer": "76561197987395774",
    "kills": "0",
    "playerName": "[FurY] SaMuRaI_87",
    "players": "0",
    "poison": "0",
    "radiations": "0",
    "sleepers": "0",
    "suicides": "5",
    "thirst": "0",
    "wolf": "0"
},
{
    "bear": "0",
    "bearTrap": "0",
    "bleedings": "0",
    "c4": "0",
    "campfire": "0",
    "cold": "0",
    "drowning": "0",
    "fall": "0",
    "heat": "0",
    "hunger": "0",
    "idPayer": "76561197976849248",
    "kills": "0",
    "playerName": "Bob Loblaw",
    "players": "0",
    "poison": "0",
    "radiations": "0",
    "sleepers": "0",
    "suicides": "2",
    "thirst": "0",
    "wolf": "0"
},
{
    "bear": "0",
    "bearTrap": "0",
    "bleedings": "0",
    "c4": "0",
    "campfire": "0",
    "cold": "0",
    "drowning": "0",
    "fall": "0",
    "heat": "0",
    "hunger": "0",
    "idPayer": "76561197991310193",
    "kills": "2",
    "playerName": "orphan overseer Nando",
    "players": "0",
    "poison": "0",
    "radiations": "0",
    "sleepers": "0",
    "suicides": "0",
    "thirst": "0",
    "wolf": "0"
},
{
    "bear": "0",
    "bearTrap": "0",
    "bleedings": "0",
    "c4": "0",
    "campfire": "0",
    "cold": "0",
    "drowning": "0",
    "fall": "0",
    "heat": "0",
    "hunger": "0",
    "idPayer": "76561197971409218",
    "kills": "0",
    "playerName": "[ï¿½ï¿½Æ±] Proportion",
    "players": "1",
    "poison": "0",
    "radiations": "0",
    "sleepers": "0",
    "suicides": "1",
    "thirst": "0",
    "wolf": "0"
},
{
    "bear": "0",
    "bearTrap": "0",
    "bleedings": "0",
    "c4": "0",
    "campfire": "0",
    "cold": "0",
    "drowning": "0",
    "fall": "0",
    "heat": "0",
    "hunger": "0",
    "idPayer": "76561198020137524",
    "kills": "0",
    "playerName": "[ï¿½ï¿½Æ±] Chimp",
    "players": "1",
    "poison": "0",
    "radiations": "0",
    "sleepers": "0",
    "suicides": "1",
    "thirst": "0",
    "wolf": "0"
},
{
    "bear": "0",
    "bearTrap": "0",
    "bleedings": "0",
    "c4": "0",
    "campfire": "0",
    "cold": "0",
    "drowning": "0",
    "fall": "1",
    "heat": "0",
    "hunger": "0",
    "idPayer": "76561198038871235",
    "kills": "3",
    "playerName": "Your Mate",
    "players": "0",
    "poison": "0",
    "radiations": "0",
    "sleepers": "3",
    "suicides": "0",
    "thirst": "0",
    "wolf": "0"
},
{
    "bear": "0",
    "bearTrap": "1",
    "bleedings": "0",
    "c4": "0",
    "campfire": "0",
    "cold": "0",
    "drowning": "0",
    "fall": "0",
    "heat": "0",
    "hunger": "0",
    "idPayer": "76561197969325026",
    "kills": "1",
    "playerName": "Frankminimia",
    "players": "1",
    "poison": "0",
    "radiations": "0",
    "sleepers": "1",
    "suicides": "0",
    "thirst": "0",
    "wolf": "0"
},
{
    "bear": "0",
    "bearTrap": "0",
    "bleedings": "1",
    "c4": "0",
    "campfire": "0",
    "cold": "0",
    "drowning": "0",
    "fall": "0",
    "heat": "0",
    "hunger": "0",
    "idPayer": "76561198026744117",
    "kills": "0",
    "playerName": "TKMAYOR",
    "players": "0",
    "poison": "0",
    "radiations": "0",
    "sleepers": "0",
    "suicides": "0",
    "thirst": "0",
    "wolf": "0"
},
{
    "bear": "0",
    "bearTrap": "0",
    "bleedings": "0",
    "c4": "0",
    "campfire": "0",
    "cold": "0",
    "drowning": "0",
    "fall": "0",
    "heat": "0",
    "hunger": "0",
    "idPayer": "76561198126096588",
    "kills": "1",
    "playerName": "MightyMouse",
    "players": "0",
    "poison": "1",
    "radiations": "0",
    "sleepers": "0",
    "suicides": "1",
    "thirst": "0",
    "wolf": "0"
},
{
    "bear": "0",
    "bearTrap": "0",
    "bleedings": "0",
    "c4": "0",
    "campfire": "0",
    "cold": "0",
    "drowning": "0",
    "fall": "0",
    "heat": "0",
    "hunger": "0",
    "idPayer": "76561198037839874",
    "kills": "0",
    "playerName": "SchultzyX89",
    "players": "2",
    "poison": "0",
    "radiations": "0",
    "sleepers": "0",
    "suicides": "0",
    "thirst": "0",
    "wolf": "0"
},
{
    "bear": "0",
    "bearTrap": "0",
    "bleedings": "0",
    "c4": "0",
    "campfire": "0",
    "cold": "0",
    "drowning": "0",
    "fall": "0",
    "heat": "0",
    "hunger": "0",
    "idPayer": "76561198095749619",
    "kills": "2",
    "playerName": "SpaWn",
    "players": "1",
    "poison": "0",
    "radiations": "0",
    "sleepers": "1",
    "suicides": "0",
    "thirst": "0",
    "wolf": "0"
},
{
    "bear": "0",
    "bearTrap": "0",
    "bleedings": "3",
    "c4": "0",
    "campfire": "0",
    "cold": "0",
    "drowning": "0",
    "fall": "0",
    "heat": "0",
    "hunger": "0",
    "idPayer": "76561198053501205",
    "kills": "0",
    "playerName": "Tryptaman",
    "players": "1",
    "poison": "0",
    "radiations": "0",
    "sleepers": "0",
    "suicides": "12",
    "thirst": "0",
    "wolf": "0"
},
{
    "bear": "0",
    "bearTrap": "0",
    "bleedings": "1",
    "c4": "0",
    "campfire": "0",
    "cold": "0",
    "drowning": "0",
    "fall": "0",
    "heat": "0",
    "hunger": "0",
    "idPayer": "76561197978587326",
    "kills": "0",
    "playerName": "[B&E] Bockle",
    "players": "0",
    "poison": "0",
    "radiations": "0",
    "sleepers": "0",
    "suicides": "1",
    "thirst": "0",
    "wolf": "0"
},
{
    "bear": "0",
    "bearTrap": "0",
    "bleedings": "0",
    "c4": "0",
    "campfire": "0",
    "cold": "0",
    "drowning": "0",
    "fall": "0",
    "heat": "0",
    "hunger": "0",
    "idPayer": "76561198055778249",
    "kills": "0",
    "playerName": "Realistphill",
    "players": "0",
    "poison": "0",
    "radiations": "0",
    "sleepers": "0",
    "suicides": "1",
    "thirst": "0",
    "wolf": "0"
},
{
    "bear": "0",
    "bearTrap": "0",
    "bleedings": "0",
    "c4": "0",
    "campfire": "0",
    "cold": "0",
    "drowning": "0",
    "fall": "0",
    "heat": "0",
    "hunger": "0",
    "idPayer": "76561198052583149",
    "kills": "0",
    "playerName": "Tkell44",
    "players": "0",
    "poison": "0",
    "radiations": "1",
    "sleepers": "0",
    "suicides": "1",
    "thirst": "0",
    "wolf": "0"
},
{
    "bear": "0",
    "bearTrap": "0",
    "bleedings": "0",
    "c4": "0",
    "campfire": "1",
    "cold": "0",
    "drowning": "0",
    "fall": "0",
    "heat": "0",
    "hunger": "0",
    "idPayer": "76561198087888217",
    "kills": "0",
    "playerName": "shanks313",
    "players": "0",
    "poison": "0",
    "radiations": "0",
    "sleepers": "1",
    "suicides": "1",
    "thirst": "0",
    "wolf": "1"
},
{
    "bear": "0",
    "bearTrap": "0",
    "bleedings": "1",
    "c4": "0",
    "campfire": "0",
    "cold": "0",
    "drowning": "0",
    "fall": "0",
    "heat": "0",
    "hunger": "0",
    "idPayer": "76561198066993479",
    "kills": "0",
    "playerName": "fred",
    "players": "0",
    "poison": "0",
    "radiations": "0",
    "sleepers": "0",
    "suicides": "2",
    "thirst": "0",
    "wolf": "0"
},
{
    "bear": "0",
    "bearTrap": "0",
    "bleedings": "1",
    "c4": "0",
    "campfire": "0",
    "cold": "0",
    "drowning": "0",
    "fall": "0",
    "heat": "0",
    "hunger": "0",
    "idPayer": "76561198046697820",
    "kills": "0",
    "playerName": "malkiy",
    "players": "1",
    "poison": "0",
    "radiations": "0",
    "sleepers": "0",
    "suicides": "6",
    "thirst": "0",
    "wolf": "0"
},
{
    "bear": "0",
    "bearTrap": "0",
    "bleedings": "0",
    "c4": "0",
    "campfire": "0",
    "cold": "0",
    "drowning": "0",
    "fall": "1",
    "heat": "0",
    "hunger": "0",
    "idPayer": "76561198081572384",
    "kills": "0",
    "playerName": "Penrock",
    "players": "1",
    "poison": "0",
    "radiations": "0",
    "sleepers": "1",
    "suicides": "6",
    "thirst": "0",
    "wolf": "0"
},
{
    "bear": "0",
    "bearTrap": "0",
    "bleedings": "0",
    "c4": "0",
    "campfire": "0",
    "cold": "0",
    "drowning": "0",
    "fall": "0",
    "heat": "0",
    "hunger": "0",
    "idPayer": "76561198075113378",
    "kills": "0",
    "playerName": "Insane clubbin09",
    "players": "0",
    "poison": "0",
    "radiations": "0",
    "sleepers": "1",
    "suicides": "0",
    "thirst": "0",
    "wolf": "0"
},
{
    "bear": "0",
    "bearTrap": "0",
    "bleedings": "0",
    "c4": "0",
    "campfire": "0",
    "cold": "0",
    "drowning": "0",
    "fall": "0",
    "heat": "0",
    "hunger": "0",
    "idPayer": "76561198146888551",
    "kills": "0",
    "playerName": "matt",
    "players": "0",
    "poison": "0",
    "radiations": "0",
    "sleepers": "1",
    "suicides": "2",
    "thirst": "0",
    "wolf": "0"
},
{
    "bear": "0",
    "bearTrap": "0",
    "bleedings": "0",
    "c4": "0",
    "campfire": "1",
    "cold": "0",
    "drowning": "0",
    "fall": "0",
    "heat": "0",
    "hunger": "0",
    "idPayer": "76561198118470883",
    "kills": "0",
    "playerName": "firmerection",
    "players": "0",
    "poison": "0",
    "radiations": "0",
    "sleepers": "0",
    "suicides": "0",
    "thirst": "0",
    "wolf": "1"
},
{
    "bear": "0",
    "bearTrap": "0",
    "bleedings": "2",
    "c4": "0",
    "campfire": "0",
    "cold": "0",
    "drowning": "0",
    "fall": "0",
    "heat": "0",
    "hunger": "0",
    "idPayer": "76561198174356701",
    "kills": "0",
    "playerName": "\u0010xc}S\u0011SS",
    "players": "0",
    "poison": "0",
    "radiations": "0",
    "sleepers": "0",
    "suicides": "2",
    "thirst": "0",
    "wolf": "0"
},
{
    "bear": "0",
    "bearTrap": "0",
    "bleedings": "0",
    "c4": "0",
    "campfire": "0",
    "cold": "0",
    "drowning": "0",
    "fall": "0",
    "heat": "0",
    "hunger": "0",
    "idPayer": "76561198020936952",
    "kills": "0",
    "playerName": "AngelOfDeath",
    "players": "0",
    "poison": "0",
    "radiations": "0",
    "sleepers": "0",
    "suicides": "1",
    "thirst": "0",
    "wolf": "0"
}
]};
